{
  "jcr:primaryType" : "nt:unstructured",
  "sling:resourceType" : "gad/source",
  "title" : "Cierre del canal",
  "file" : "",
  "type" : "video",
  "schematype" : "schema",
  "mimetype" : "",
  "lang" : "",
  "length" : "",
  "size" : "",
  "bitrate" : "",
  "tracks_number" : "",
  "track_1_type" : "",
  "track_1_encoding" : "",
  "track_1_features" : "",
  "track_2_type" : "",
  "track_2_encoding" : "",
  "track_2_features" : "",
  "jcr:created" : "",
  "jcr:createdBy" : "",
  "jcr:lastModified" : "",
  "jcr:lastModifiedBy" : ""
}
