{
  "jcr:primaryType" : "nt:unstructured",
  "sling:resourceType" : "gad/collection",
  "jcr:created" : "",
  "jcr:createdBy" : "",
  "jcr:lastModified" : "",
  "jcr:lastModifiedBy" : "",
  "description" : "Basic collection with contents, sources and tags"
}
