{
	"jcr:primaryType" : "nt:unstructured",
	"description" : "Medium quality flash conversion",
	"conversion_type" : "video",
	"output_mimetype" : "video/x-flv",
	"output_extension" : "flv",
	"command" : "ffmpeg",		
	"params" : "-f flv -b 560000 -s 610x344 -aspect 16:9 -acodec libmp3lame -vcodec libx264 -vpre hq -ac 2 -ab 64k -ar 44100 -threads 4"
}